Chapter 18 Media Cloud API | APIs for social scientists: A collaborative review
…
18.4.1 Media keywords of “Universität Mannheim”

In the following slightly more sophisticated example, we are going to first search for a list of all national German media outlets, search for a bunch of (German) articles mentioning “Universität Mannheim”, and then extract keywords using term frequency-inverse document frequency (TF-IDF). There are three steps.

18.4.1.1 Search for all national German media outlets

All major German media outlets are tagged with Germany___National. The function search_media() is used to retrieve information about all national German media outlets.

de_media <- search_media(tag = "Germany___National", n = 100)

## # A tibble: 50 × 5
##    media_id name                 url                             start_date          tags        
##       <int> <chr>                <chr>                           <dttm>              <named list>
##  1    19831 Spiegel              http://www.spiegel.de           2013-06-10 00:00:00 <list [19]> 
##  2    20001 taz.de               http://www.taz.de               2017-04-03 00:00:00 <list [17]> 
##  3    21558 neues-deutschland.de http://www.neues-deutschland.de 2017-04-03 00:00:00 <list [12]> 
##  4    21854 jungewelt.de         http://www.jungewelt.de         2018-06-04 00:00:00 <list [21]> 
##  5    21917 berlinerumschau.com  http://www.berlinerumschau.com  2014-12-29 00:00:00 <list [7]>  
##  6    22009 bild.de              http://www.bild.de              2013-06-10 00:00:00 <list [21]> 
##  7    23037 manager-magazin.de   http://www.manager-magazin.de   2017-04-10 00:00:00 <list [9]>  
##  8    23538 n-tv.de              http://www.n-tv.de              2017-04-03 00:00:00 <list [9]>  
##  9    38697 zeit                 http://www.zeit.de/index        2013-03-11 00:00:00 <list [20]> 
## 10    39206 Tagespiegel          http://www.tagesspiegel.de      2013-03-18 00:00:00 <list [20]> 
## # ℹ 40 more rows

18.4.1.2 Pull a list of articles

The following query gets a list of 100 articles mentioning “universität mannheim” published in a specific date range from all national German media outlets. Unlike the AND operator, this search for the exact term. Also, a query is case insensitive. The function search_stories() can be used for this.

unima_articles <- search_stories(text = "\"universität mannheim\"",
                                 media_id = de_media$media_id,
                                 n = 100,
                                 after_date = "2021-01-01",
                                 before_date = "2021-12-01")
unima_articles

## # A tibble: 88 × 9
##    stories_id media_id publish_date        title                                                                                                                                         url                                                      processed_stories_id media_name collect_date        tags  
##         <int>    <int> <dttm>              <chr>                                                                                                                                         <chr>                                                                   <dbl> <chr>      <dttm>              <name>
##  1 1815576509   385413 2021-01-05 10:57:12 Studie: Erneuter Lockdown belastete Unternehmensgewinne nicht spürbar                                                                         https://www.boersen-zeitung.de/index.php?l=5&isin=&dpas…           2225420413 Börsen-Ze… 2021-01-05 11:14:23 <list>
##  2 1815575525   282241 2021-01-05 10:56:38 Studie: Erneuter Lockdown belastete Unternehmensgewinne nicht spürbar                                                                         https://www.boerse-online.de/nachrichten/aktien/studie-…           2225420496 boerse-on… 2021-01-05 11:14:17 <list>
##  3 1815573995    42022 2021-01-05 11:05:00 Studie: Erneuter Lockdown belastete Unternehmensgewinne nicht spürbar                                                                         https://www.finanznachrichten.de/nachrichten-2021-01/51…           2225423365 finanznac… 2021-01-05 11:14:05 <list>
##  4 1815653090    39727 2021-01-05 12:44:00 Bund-Länder-Beratungen: Jetzt live: Kanzlerin Merkel und Ministerpräsidenten stellen die neuen Beschlüsse vor                                 https://www.stern.de/gesundheit/corona-gipfel-im-livebl…           2225488400 stern      2021-01-05 12:45:59 <list>
##  5 1815772594    21558 2021-01-05 11:07:16 Das Prinzip Links                                                                                                                             https://www.neues-deutschland.de/artikel/1146618.das-pr…           2225615666 neues-deu… 2021-01-05 15:43:01 <list>
##  6 1821852038    42022 2021-01-12 13:11:00 Medizinjurist: Impfpflicht für Pflegekräfte rechtlich vertretbar                                                                              https://www.finanznachrichten.de/nachrichten-2021-01/51…           2231370715 finanznac… 2021-01-12 13:29:47 <list>
##  7 1822816931    41519 2021-01-13 10:54:24 Staatsverschuldung: Rückhalt für Schuldenbremse nimmt ab – Landespolitiker für Infrastrukturinvestitionen                                     https://www.handelsblatt.com/politik/deutschland/staats…           2232460589 Handelsbl… 2021-01-13 11:04:27 <list>
##  8 1822860428    39206 2021-01-13 11:32:47 Schützen Konzerne ihre Beschäftigten ausreichend vor Corona-Ausbrüchen?                                                                       https://www.tagesspiegel.de/politik/weniger-homeoffice-…           2232506700 Tagespieg… 2021-01-13 11:41:40 <list>
##  9 1823395678    42022 2021-01-14 01:07:00 PRESSESPIEGEL/Zinsen, Konjunktur, Kapitalmärkte, Branchen                                                                                     https://www.finanznachrichten.de/nachrichten-2021-01/51…           2233108356 finanznac… 2021-01-14 01:32:49 <list>
## 10 1829126009    41519 2021-01-20 09:57:59 Homeoffice und Hygienevorschriften: „Wir können die Zentrale nicht einfach abschließen“: Wirtschaft reagiert gespalten auf neue Corona-Regeln https://www.handelsblatt.com/karriere/homeoffice-und-hy…           2239054366 Handelsbl… 2021-01-20 10:17:51 <list>
## # ℹ 78 more rows

18.4.1.3 Pull word matrices

With the list of stories_id, we can then use the function get_word_matrices() to obtain word matrices. 11

unima_mat <- get_word_matrices(stories_id = unima_articles$stories_id, n = 100)

## # A tibble: 30,353 × 4
##    stories_id word_counts word_stem          full_word          
##    <chr>            <int> <chr>              <chr>              
##  1 1815573995           1 deutschland        deutschland        
##  2 1815573995           1 befragt            befragt            
##  3 1815573995           1 irgendeinem        irgendeinem        
##  4 1815573995           1 vorgelegten        vorgelegten        
##  5 1815573995           1 solo-selbstständig solo-selbstständige
##  6 1815573995           1 wert               wert               
##  7 1815573995           1 zufolg             zufolge            
##  8 1815573995           1 dpa-afx            dpa-afx            
##  9 1815573995           1 universität        universität        
## 10 1815573995           1 gewinnsitu         gewinnsituation    
## # ℹ 30,343 more rows
…
